Practicing Data Wrangling with Tree Equity Data
…
The Data

Loading in the data

ca_tes <- tempfile(fileext = ".zip") |>
  (\(f) { 
    download.file("https://tes-app-data-share.s3.amazonaws.com/ca/ca_csv.zip", f, quiet = TRUE)
    read_csv(unz(f, unzip(f, list = TRUE)$Name[1]))
  })()

Looking at the data

ca_tes

# A tibble: 24,253 × 48
   GEOID place state state_abbr county ua_name ua_pop congressio cbg_pop acs_pop
   <chr> <chr> <chr> <chr>      <chr>  <chr>    <dbl> <chr>        <dbl>   <dbl>
 1 0600… Oakl… Cali… CA         Alame… San Fr… 3.52e6 CA Congre…    1789    1963
 2 0600… Oakl… Cali… CA         Alame… San Fr… 3.52e6 CA Congre…    1249    1361
 3 0600… Oakl… Cali… CA         Alame… San Fr… 3.52e6 CA Congre…    1022    1029
 4 0600… Oakl… Cali… CA         Alame… San Fr… 3.52e6 CA Congre…     979    1009
 5 0600… Oakl… Cali… CA         Alame… San Fr… 3.52e6 CA Congre…    1123    1122
 6 0600… Oakl… Cali… CA         Alame… San Fr… 3.52e6 CA Congre…    1528    1623
 7 0600… Oakl… Cali… CA         Alame… San Fr… 3.52e6 CA Congre…    1390    1048
 8 0600… Oakl… Cali… CA         Alame… San Fr… 3.52e6 CA Congre…    1463    1656
 9 0600… Oakl… Cali… CA         Alame… San Fr… 3.52e6 CA Congre…    1558    1489
10 0600… Oakl… Cali… CA         Alame… San Fr… 3.52e6 CA Congre…    1353    1035
# ℹ 24,243 more rows
# ℹ 38 more variables: land_area <dbl>, biome <chr>, cnpysource <chr>,
#   tc_goal <dbl>, treecanopy <dbl>, tc_gap <dbl>, priority_i <dbl>,
#   pctpoc <dbl>, pctpocnorm <dbl>, pctpov <dbl>, pctpovnorm <dbl>,
#   unemplrate <dbl>, unemplnorm <dbl>, dep_ratio <dbl>, dep_perc <dbl>,
#   depratnorm <dbl>, linguistic <dbl>, lingnorm <dbl>, health_nor <dbl>,
#   temp_diff <dbl>, temp_norm <dbl>, tes <dbl>, tesctyscor <dbl>, …
…
Person

County

State

Country

What is the observational unit in the tree equity dataset?

What is the observational unit?

ca_tes

# A tibble: 24,253 × 48
   GEOID place state state_abbr county ua_name ua_pop congressio cbg_pop acs_pop
   <chr> <chr> <chr> <chr>      <chr>  <chr>    <dbl> <chr>        <dbl>   <dbl>
 1 0600… Oakl… Cali… CA         Alame… San Fr… 3.52e6 CA Congre…    1789    1963
 2 0600… Oakl… Cali… CA         Alame… San Fr… 3.52e6 CA Congre…    1249    1361
 3 0600… Oakl… Cali… CA         Alame… San Fr… 3.52e6 CA Congre…    1022    1029
 4 0600… Oakl… Cali… CA         Alame… San Fr… 3.52e6 CA Congre…     979    1009
 5 0600… Oakl… Cali… CA         Alame… San Fr… 3.52e6 CA Congre…    1123    1122
 6 0600… Oakl… Cali… CA         Alame… San Fr… 3.52e6 CA Congre…    1528    1623
 7 0600… Oakl… Cali… CA         Alame… San Fr… 3.52e6 CA Congre…    1390    1048
 8 0600… Oakl… Cali… CA         Alame… San Fr… 3.52e6 CA Congre…    1463    1656
 9 0600… Oakl… Cali… CA         Alame… San Fr… 3.52e6 CA Congre…    1558    1489
10 0600… Oakl… Cali… CA         Alame… San Fr… 3.52e6 CA Congre…    1353    1035
# ℹ 24,243 more rows
# ℹ 38 more variables: land_area <dbl>, biome <chr>, cnpysource <chr>,
#   tc_goal <dbl>, treecanopy <dbl>, tc_gap <dbl>, priority_i <dbl>,
#   pctpoc <dbl>, pctpocnorm <dbl>, pctpov <dbl>, pctpovnorm <dbl>,
#   unemplrate <dbl>, unemplnorm <dbl>, dep_ratio <dbl>, dep_perc <dbl>,
#   depratnorm <dbl>, linguistic <dbl>, lingnorm <dbl>, health_nor <dbl>,
#   temp_diff <dbl>, temp_norm <dbl>, tes <dbl>, tesctyscor <dbl>, …
…
